{
    "app-id": "net.figuiere.compiano",
    "runtime": "org.gnome.Platform",
    "runtime-version": "master",
    "sdk": "org.gnome.Sdk",
    "sdk-extensions": [
        "org.freedesktop.Sdk.Extension.llvm18",
        "org.freedesktop.Sdk.Extension.rust-stable"
    ],
    "command": "compiano",
    "finish-args": [
        "--share=network",
        "--share=ipc",
        "--socket=fallback-x11",
        "--socket=wayland",
        "--socket=pulseaudio",
        "--device=dri",
        "--filesystem=xdg-run/pipewire-0",
        "--talk-name=org.freedesktop.FileManager1",
        "--env=RUST_LOG=debug"
    ],
    "add-extensions" : {
        "org.freedesktop.LinuxAudio.Plugins" : {
            "directory" : "extensions/Plugins",
            "version" : "24.08",
            "add-ld-path" : "lib",
            "merge-dirs" : "ladspa;lv2;vst",
            "subdirectories" : true,
            "no-autodownload" : true
        }
    },
    "build-options" : {
        "append-path" : "/usr/lib/sdk/rust-stable/bin:/usr/lib/sdk/llvm18/bin",
        "prepend-ld-library-path": "/usr/lib/sdk/llvm18/lib",
        "build-args" : [
            "--share=network"
        ],
        "test-args" : [
            "--share=network"
        ],
        "env" : {
            "RUSTFLAGS" : "-L=/app/lib",
            "RUST_BACKTRACE" : "1",
            "RUST_LOG" : "compiano=debug"
        }
    },
    "cleanup" : [
        "/include",
        "/lib/pkgconfig",
        "/man",
        "/share/doc",
        "/share/gtk-doc",
        "/share/man",
        "/share/pkgconfig",
        "*.la",
        "*.a"
    ],
    "modules" : [
        {
            "name": "libpanel",
            "buildsystem" : "meson",
            "config-opts": [
                "-Dvapi=false",
                "-Ddocs=disabled"
            ],
            "sources": [
                {
                    "type": "git",
                    "url": "https://gitlab.gnome.org/GNOME/libpanel.git",
                    "tag": "libpanel-1.2"
                }
            ]
        },
        {
            "name" : "compiano",
            "buildsystem" : "meson",
            "config-opts" : [
                "-Dprofile=development"
            ],
            "post-install": [
                "install -d /app/extensions/Plugins"
            ],
            "sources" : [
                {
                    "type": "git",
                    "url": "file:///home/hub/source/minuit",
                    "branch": "main"
                }
            ]
        }
    ]
}
